sim.vcd
$date
	Fri Dec 19 16:35:30 2025
$end

$version
	Synopsys VCS version X-2025.06-SP2_Full64
$end

$timescale
	1ns
$end

$comment Csum: 1 fbfbb3f697cadcb0 $end


$scope module top $end
$var real 64 ! vdd $end
$var real 64 " vss $end
$var reg 1 # en $end
$var reg 4 $ addr [3:0] $end
$var wire 4 % data [3:0] $end
$var reg 4 & data_drive [3:0] $end
$var reg 1 ' drive_en $end
$var reg 1 ( rnw $end
$var reg 1 ) rst $end
$var reg 1 * clk $end

$scope begin unnamed$$_vcs_0 $end
$upscope $end


$scope module reg_bank_i $end
$var wire 1 + clk $end
$var wire 1 , rst $end
$var wire 1 - en $end
$var wire 1 . rnw $end
$var wire 4 / addr [3:0] $end
$var wire 4 % data [3:0] $end
$var reg 4 0 read_q [3:0] $end
$var integer 32 1 i $end
$upscope $end

$upscope $end

$enddefinitions $end

#0
$dumpvars
0*
1'
1#
1-
0.
0,
0(
0)
b0001 $
b1101 %
b1101 &
bxxxxxxxxxxxxxxxxxxxxxxxxxxxxxxxx 1
bxxxx 0
b0001 /
r0.000000000000000  !
r0.000000000000000  "
0+
$end
#1000
r1.900000000000000  !
#2000
1*
1+
0#
0-
0'
bzzzz %
#4000
0*
0+
b1110 $
b1110 /
1#
1-
1'
b1011 &
b1011 %
#6000
1*
1+
0#
0-
0'
bzzzz %
#8000
0*
0+
b0001 $
b0001 /
1#
1-
1'
b0011 &
b0011 %
#10000
1*
1+
0#
0-
0'
bzzzz %
#12000
0*
0+
b1001 $
b1001 /
1#
1-
1'
b1000 &
b1000 %
#14000
1*
1+
0#
0-
0'
bzzzz %
#16000
0*
0+
b0011 $
b0011 /
1#
1-
1'
b0100 &
b0100 %
#18000
1*
1+
0#
0-
0'
bzzzz %
#20000
0*
0+
b0111 $
b0111 /
1#
1-
1'
b0101 &
b0101 %
#22000
1*
1+
0#
0-
0'
bzzzz %
#24000
0*
0+
b0000 $
b0000 /
1#
1-
1'
b1111 &
b1111 %
#26000
1*
1+
0#
0-
0'
bzzzz %
#28000
0*
0+
b1110 $
b1110 /
1#
1-
1'
b0111 &
b0111 %
